<?xml version="1.0" encoding="UTF-8" standalone="no"?>
<!-- Created with Inkscape (http://www.inkscape.org/) -->
<svg
   xmlns:dc="http://purl.org/dc/elements/1.1/"
   xmlns:cc="http://web.resource.org/cc/"
   xmlns:rdf="http://www.w3.org/1999/02/22-rdf-syntax-ns#"
   xmlns:svg="http://www.w3.org/2000/svg"
   xmlns="http://www.w3.org/2000/svg"
   xmlns:sodipodi="http://inkscape.sourceforge.net/DTD/sodipodi-0.dtd"
   xmlns:inkscape="http://www.inkscape.org/namespaces/inkscape"
   id="svg1348"
   sodipodi:version="0.32"
   inkscape:version="0.42+devel"
   width="600pt"
   height="660pt"
   sodipodi:docbase="D:\Inscape-rysunki"
   sodipodi:docname="POL_Dębica_N_COA.svg"
   version="1.0">
  <metadata
     id="metadata1353">
    <rdf:RDF>
      <cc:Work
         rdf:about="">
        <dc:format>image/svg+xml</dc:format>
        <dc:type
           rdf:resource="http://purl.org/dc/dcmitype/StillImage" />
      </cc:Work>
    </rdf:RDF>
  </metadata>
  <defs
     id="defs1351" />
  <sodipodi:namedview
     inkscape:window-height="682"
     inkscape:window-width="751"
     inkscape:pageshadow="2"
     inkscape:pageopacity="0.0"
     borderopacity="1.0"
     bordercolor="#666666"
     pagecolor="#ffffff"
     id="base"
     inkscape:zoom="0.47717089"
     inkscape:cx="370.59497"
     inkscape:cy="441.37463"
     inkscape:window-x="-10"
     inkscape:window-y="-3"
     inkscape:current-layer="svg1348" />
  <g
     id="g2417"
     transform="matrix(1.011433,0.000000,0.000000,1.011433,-5.182599e-2,-6.643884e-2)">
    <path
       sodipodi:nodetypes="cccscccc"
       id="rect1357"
       d="M 7.1905935,8.46875 L 7.1905935,476.8125 L 7.7530935,476.8125 C 18.344954,662.22575 177.07071,809.59375 371.12809,809.59375 C 565.18547,809.59375 723.94248,662.22574 734.53434,476.8125 L 735.09684,476.8125 L 735.09684,8.46875 L 7.1905935,8.46875 z "
       style="opacity:1;fill:#ff0100;fill-opacity:1;fill-rule:nonzero;stroke:#000000;stroke-width:5.31496048;stroke-linecap:round;stroke-linejoin:round;stroke-miterlimit:4;stroke-dasharray:none;stroke-dashoffset:0;stroke-opacity:1" />
    <g
       transform="translate(750.2553,0.000000)"
       id="g2368">
      <g
         id="g2263"
         style="stroke-width:3.54330707;stroke-miterlimit:4;stroke-dasharray:none">
        <path
           style="fill:#ffff33;fill-opacity:1;fill-rule:evenodd;stroke:#000000;stroke-width:3.54330707;stroke-linecap:butt;stroke-linejoin:miter;stroke-miterlimit:4;stroke-dasharray:none;stroke-opacity:1"
           d="M -682.56636,117.40741 C -675.70445,111.692 -669.11402,107.64535 -663.95974,112.42662 L -654.49645,99.522344 C -670.39965,82.44426 -692.83108,98.257603 -682.56636,117.40741 z "
           id="path2257"
           sodipodi:nodetypes="cccc" />
        <path
           sodipodi:nodetypes="cccc"
           id="path2255"
           d="M -650.07098,83.26154 C -641.84895,83.37661 -634.8355,84.498829 -634.21559,90.949002 L -619.8016,87.585737 C -620.29026,66.053124 -645.41056,63.664117 -650.07098,83.26154 z "
           style="fill:#ffff33;fill-opacity:1;fill-rule:evenodd;stroke:#000000;stroke-width:3.54330707;stroke-linecap:butt;stroke-linejoin:miter;stroke-miterlimit:4;stroke-dasharray:none;stroke-opacity:1" />
        <path
           sodipodi:nodetypes="cccc"
           id="path2259"
           d="M -700.50588,153.21277 C -695.57951,145.76411 -690.43279,139.99172 -684.1204,143.08702 L -678.772,128.00496 C -698.91793,116.22725 -715.84828,137.82804 -700.50588,153.21277 z "
           style="fill:#ffff33;fill-opacity:1;fill-rule:evenodd;stroke:#000000;stroke-width:3.54330707;stroke-linecap:butt;stroke-linejoin:miter;stroke-miterlimit:4;stroke-dasharray:none;stroke-opacity:1" />
        <path
           style="fill:#ffff33;fill-opacity:1;fill-rule:evenodd;stroke:#000000;stroke-width:3.54330707;stroke-linecap:butt;stroke-linejoin:miter;stroke-miterlimit:4;stroke-dasharray:none;stroke-opacity:1"
           d="M -685.40799,211.49492 C -677.21375,215.04541 -669.75016,217.07125 -666.15183,211.03146 L -653.43611,220.74663 C -663.88324,241.6136 -689.86135,232.76101 -685.40799,211.49492 z "
           id="path2261"
           sodipodi:nodetypes="cccc" />
        <path
           sodipodi:nodetypes="ccccccccccccccc"
           id="path2253"
           d="M -553.01678,246.6201 L -573.67683,268.72155 C -591.63547,239.10341 -611.71782,205.26199 -637.09839,179.35481 C -642.14295,195.69134 -643.44632,216.62744 -653.91471,223.07725 C -664.07135,224.12772 -671.82749,222.53766 -669.28964,209.62419 C -642.58225,171.36662 -657.73915,157.45933 -684.18409,148.1245 C -693.25291,136.42743 -689.21496,124.56278 -676.49663,125.54258 C -668.17923,126.7064 -658.62133,148.37295 -650.55145,151.0073 C -649.59129,139.7968 -663.73842,127.01109 -664.00451,115.93325 C -668.42584,103.98172 -657.33359,97.268244 -650.07098,99.11693 C -642.87229,107.44916 -646.17267,134.00352 -639.02026,143.31983 C -631.7946,129.82368 -640.69071,103.66008 -635.17652,94.792733 C -632.46596,82.216057 -616.31819,84.422848 -614.51647,94.312266 C -612.01173,116.5418 -628.92362,134.71083 -619.8016,163.97989 C -598.64077,193.72817 -576.72985,221.9763 -553.01678,246.6201 z "
           style="fill:#ffff33;fill-opacity:1;fill-rule:evenodd;stroke:#000000;stroke-width:3.54330707;stroke-linecap:butt;stroke-linejoin:miter;stroke-miterlimit:4;stroke-dasharray:none;stroke-opacity:1" />
      </g>
      <g
         id="g2270"
         transform="matrix(0.666475,-0.751228,0.745527,0.591562,-328.6229,-216.7118)">
        <path
           sodipodi:nodetypes="cccc"
           id="path2272"
           d="M -682.56636,117.40741 C -675.70445,111.692 -669.11402,107.64535 -663.95974,112.42662 L -654.49645,99.522344 C -670.39965,82.44426 -692.83108,98.257603 -682.56636,117.40741 z "
           style="fill:#ffff33;fill-opacity:1;fill-rule:evenodd;stroke:#000000;stroke-width:2.68939495;stroke-linecap:butt;stroke-linejoin:miter;stroke-miterlimit:4;stroke-dasharray:none;stroke-opacity:1" />
        <path
           style="fill:#ffff33;fill-opacity:1;fill-rule:evenodd;stroke:#000000;stroke-width:2.48031497;stroke-linecap:butt;stroke-linejoin:miter;stroke-miterlimit:4;stroke-dasharray:none;stroke-opacity:1"
           d="M -650.07098,83.26154 C -641.84895,83.37661 -634.8355,84.498829 -634.21559,90.949002 L -619.8016,87.585737 C -620.29026,66.053124 -645.41056,63.664117 -650.07098,83.26154 z "
           id="path2274"
           sodipodi:nodetypes="cccc" />
        <path
           style="fill:#ffff33;fill-opacity:1;fill-rule:evenodd;stroke:#000000;stroke-width:2.68939495;stroke-linecap:butt;stroke-linejoin:miter;stroke-miterlimit:4;stroke-dasharray:none;stroke-opacity:1"
           d="M -700.50588,153.21277 C -695.57951,145.76411 -690.43279,139.99172 -684.1204,143.08702 L -678.772,128.00496 C -698.91793,116.22725 -715.84828,137.82804 -700.50588,153.21277 z "
           id="path2276"
           sodipodi:nodetypes="cccc" />
        <path
           sodipodi:nodetypes="cccc"
           id="path2278"
           d="M -685.40799,211.49492 C -677.21375,215.04541 -669.75016,217.07125 -666.15183,211.03146 L -653.43611,220.74663 C -663.88324,241.6136 -689.86135,232.76101 -685.40799,211.49492 z "
           style="fill:#ffff33;fill-opacity:1;fill-rule:evenodd;stroke:#000000;stroke-width:2.68939495;stroke-linecap:butt;stroke-linejoin:miter;stroke-miterlimit:4;stroke-dasharray:none;stroke-opacity:1" />
        <path
           style="fill:#ffff33;fill-opacity:1;fill-rule:evenodd;stroke:#000000;stroke-width:3.62711501;stroke-linecap:butt;stroke-linejoin:miter;stroke-miterlimit:4;stroke-dasharray:none;stroke-opacity:1"
           d="M -553.01678,246.6201 L -573.67683,268.72155 C -591.63547,239.10341 -611.71782,205.26199 -637.09839,179.35481 C -642.14295,195.69134 -643.44632,216.62744 -653.91471,223.07725 C -664.07135,224.12772 -671.82749,222.53766 -669.28964,209.62419 C -642.58225,171.36662 -657.73915,157.45933 -684.18409,148.1245 C -693.25291,136.42743 -689.21496,124.56278 -676.49663,125.54258 C -668.17923,126.7064 -658.62133,148.37295 -650.55145,151.0073 C -649.59129,139.7968 -663.73842,127.01109 -664.00451,115.93325 C -668.42584,103.98172 -657.33359,97.268244 -650.07098,99.11693 C -642.87229,107.44916 -646.17267,134.00352 -639.02026,143.31983 C -631.7946,129.82368 -640.69071,103.66008 -635.17652,94.792733 C -632.46596,82.216057 -616.31819,84.422848 -614.51647,94.312266 C -612.01173,116.5418 -628.92362,134.71083 -619.8016,163.97989 C -598.64077,193.72817 -576.72985,221.9763 -553.01678,246.6201 z "
           id="path2280"
           sodipodi:nodetypes="ccccccccccccccc" />
      </g>
      <path
         style="fill:#ffffff;fill-opacity:1;fill-rule:evenodd;stroke:#000000;stroke-width:4.25196838;stroke-linecap:butt;stroke-linejoin:miter;stroke-miterlimit:4;stroke-dasharray:none;stroke-opacity:1"
         d="M -508.22395,267.25451 C -529.09698,280.73277 -537.36954,302.08633 -536.17109,329.35927 C -550.79718,313.78049 -581.66761,267.98958 -607.07403,273.46499 C -599.47867,260.14432 -587.90983,251.79049 -569.29363,252.24586 C -577.58515,228.43211 -565.67916,217.47132 -559.97792,202.56205 C -548.52167,227.74812 -540.80663,255.27246 -508.22395,267.25451 z "
         id="path2303"
         sodipodi:nodetypes="cccccc" />
      <g
         id="g2320">
        <path
           sodipodi:nodetypes="cccc"
           id="path2307"
           d="M -575.24624,601.24803 C -586.84859,583.06733 -605.97712,591.82819 -608.88637,609.65806 C -598.16201,603.91989 -589.89624,606.54092 -583.65627,616.04969 L -575.24624,601.24803 z "
           style="fill:#ffff33;fill-opacity:1;fill-rule:evenodd;stroke:#000000;stroke-width:2.48031497;stroke-linecap:butt;stroke-linejoin:miter;stroke-miterlimit:4;stroke-dasharray:none;stroke-opacity:1" />
        <g
           id="g2315">
          <path
             sodipodi:nodetypes="cccc"
             id="path2309"
             d="M -591.65943,633.89355 C -611.5157,624.54878 -622.32467,644.5839 -614.62952,662.72583 C -609.03733,650.73703 -600.73976,647.94155 -590.21305,652.72107 L -591.65943,633.89355 z "
             style="fill:#ffff33;fill-opacity:1;fill-rule:evenodd;stroke:#000000;stroke-width:2.61311603;stroke-linecap:butt;stroke-linejoin:miter;stroke-miterlimit:4;stroke-dasharray:none;stroke-opacity:1" />
          <path
             sodipodi:nodetypes="cccc"
             id="path2311"
             d="M -580.98165,669.52352 C -601.13443,680.4703 -593.40032,701.65386 -574.77915,706.21125 C -579.98913,694.26784 -576.55649,685.63272 -566.00255,679.72354 L -580.98165,669.52352 z "
             style="fill:#ffff33;fill-opacity:1;fill-rule:evenodd;stroke:#000000;stroke-width:2.64627767;stroke-linecap:butt;stroke-linejoin:miter;stroke-miterlimit:4;stroke-dasharray:none;stroke-opacity:1" />
          <path
             style="fill:#ffff33;fill-opacity:1;fill-rule:evenodd;stroke:#000000;stroke-width:2.77082443;stroke-linecap:butt;stroke-linejoin:miter;stroke-miterlimit:4;stroke-dasharray:none;stroke-opacity:1"
             d="M -476.7428,669.68647 C -454.48736,679.31481 -462.38163,701.10049 -482.57181,706.93166 C -477.19466,694.59147 -481.15796,686.15528 -492.81756,680.93588 L -476.7428,669.68647 z "
             id="path2313"
             sodipodi:nodetypes="cccc" />
        </g>
        <path
           sodipodi:nodetypes="cccccccccccccccccccccccccccccc"
           id="path2305"
           d="M -356.07419,532.55974 L -348.07295,501.83212 C -345.55556,486.05841 -351.87621,473.96721 -369.7876,466.70549 L -412.57822,458.40283 C -476.82119,447.21855 -515.34542,492.58106 -556.27806,484.58814 C -548.33266,494.83714 -540.58229,505.24215 -524.34476,508.85744 C -527.89084,514.12798 -531.39727,519.42826 -541.58874,519.71476 C -535.71238,528.10195 -530.31296,536.96606 -512.84877,533.76542 C -512.66004,542.91963 -511.23312,552.07384 -502.63012,561.22805 C -494.11457,594.43868 -508.37812,632.11998 -528.17676,630.20398 C -553.27099,635.73896 -545.63614,596.58766 -573.52204,600.82534 C -580.08521,603.99274 -583.98257,609.15949 -583.7407,617.43066 C -580.83071,626.81226 -564.11289,621.35909 -559.02666,631.14406 C -570.95861,628.22893 -585.7969,622.8564 -588.97602,630.37322 C -592.61177,635.19595 -594.14215,645.14283 -590.18171,651.47266 C -576.12594,665.04137 -575.01821,645.32339 -556.72401,648.15704 C -553.41963,654.54624 -581.00723,651.22251 -580.23483,668.0508 C -578.25471,672.78774 -576.30726,677.541 -571.19221,680.71047 C -554.60602,689.27586 -533.88259,668.37214 -515.7308,670.16075 C -501.98362,668.37583 -499.53044,681.54909 -487.09583,681.61473 C -481.99585,679.55817 -476.61079,678.45188 -473.83332,668.65365 C -478.46948,648.5905 -476.73177,632.35167 -469.31201,619.52207 C -458.83895,626.6571 -449.87641,620.9528 -440.97847,614.69934 C -450.95922,612.57969 -461.40196,610.87582 -463.58502,601.73825 C -448.75739,609.66417 -442.64563,599.18992 -434.64863,592.69563 C -445.445,592.13096 -456.18444,591.5261 -453.63814,581.54307 C -438.93454,587.21284 -433.5402,579.50056 -431.63443,566.77345 C -449.98112,571.3995 -457.34372,563.39385 -459.66655,549.59247 C -461.72138,534.24391 -452.29174,531.58872 -439.16994,533.01434 L -356.07419,532.55974 z "
           style="fill:#ffffff;fill-opacity:1;fill-rule:evenodd;stroke:#000000;stroke-width:4.25196838;stroke-linecap:butt;stroke-linejoin:miter;stroke-miterlimit:4;stroke-dasharray:none;stroke-opacity:1" />
      </g>
      <path
         sodipodi:nodetypes="cccc"
         id="path2330"
         d="M -270.57924,651.271 C -291.02551,644.40786 -300.41065,663.23796 -291.47824,678.94084 C -286.73545,667.74064 -278.65676,664.58983 -267.82938,668.07148 L -270.57924,651.271 z "
         style="fill:#ffff33;fill-opacity:1;fill-rule:evenodd;stroke:#000000;stroke-width:2.48031616;stroke-linecap:butt;stroke-linejoin:miter;stroke-miterlimit:4;stroke-dasharray:none;stroke-opacity:1" />
      <g
         id="g2332"
         transform="matrix(0.778243,-0.627964,0.627964,0.778243,-200.4600,-177.8800)">
        <path
           sodipodi:nodetypes="cccc"
           id="path2334"
           d="M -591.65943,633.89355 C -611.5157,624.54878 -622.32467,644.5839 -614.62952,662.72583 C -609.03733,650.73703 -600.73976,647.94155 -590.21305,652.72107 L -591.65943,633.89355 z "
           style="fill:#ffff33;fill-opacity:1;fill-rule:evenodd;stroke:#000000;stroke-width:2.61311603;stroke-linecap:butt;stroke-linejoin:miter;stroke-miterlimit:4;stroke-dasharray:none;stroke-opacity:1" />
        <path
           sodipodi:nodetypes="cccc"
           id="path2336"
           d="M -580.98165,669.52352 C -601.13443,680.4703 -593.40032,701.65386 -574.77915,706.21125 C -579.98913,694.26784 -576.55649,685.63272 -566.00255,679.72354 L -580.98165,669.52352 z "
           style="fill:#ffff33;fill-opacity:1;fill-rule:evenodd;stroke:#000000;stroke-width:2.64627767;stroke-linecap:butt;stroke-linejoin:miter;stroke-miterlimit:4;stroke-dasharray:none;stroke-opacity:1" />
        <path
           style="fill:#ffff33;fill-opacity:1;fill-rule:evenodd;stroke:#000000;stroke-width:2.77082443;stroke-linecap:butt;stroke-linejoin:miter;stroke-miterlimit:4;stroke-dasharray:none;stroke-opacity:1"
           d="M -476.7428,669.68647 C -454.48736,679.31481 -462.38163,701.10049 -482.57181,706.93166 C -477.19466,694.59147 -481.15796,686.15528 -492.81756,680.93588 L -476.7428,669.68647 z "
           id="path2338"
           sodipodi:nodetypes="cccc" />
      </g>
      <path
         style="fill:#ffffff;fill-opacity:1;fill-rule:evenodd;stroke:#000000;stroke-width:3.54330707;stroke-linecap:butt;stroke-linejoin:miter;stroke-miterlimit:4;stroke-dasharray:none;stroke-opacity:1"
         d="M -272.43909,449.85267 C -238.65201,439.35932 -218.09099,451.5392 -203.80539,474.47697 C -186.74621,498.82747 -154.13622,554.5781 -111.07132,513.77107 C -86.593661,486.52716 -165.35418,474.59129 -123.64543,417.89346 C -107.98717,402.60557 -90.895822,387.48304 -110.5474,368.12094 C -81.906348,349.95833 -78.588217,390.47492 -95.877601,404.79543 C -79.986415,405.17374 -87.831904,355.96219 -53.963896,358.16644 C -72.51615,385.11811 -39.924907,406.02507 -76.492513,416.3217 L -94.829759,416.3217 C -64.187053,414.9325 -68.940655,434.4593 -67.58585,450.37659 C -80.015102,433.29565 -99.697984,424.02856 -110.5474,438.85032 C -133.36426,469.04481 -63.43371,473.63302 -93.781916,526.34518 C -129.66821,570.69901 -177.08005,545.13274 -199.40964,514.03629 C -217.76292,488.47731 -231.95809,458.59539 -261.96066,469.76168 L -272.43909,449.85267 z "
         id="path2366"
         sodipodi:nodetypes="ccccccccccccscc" />
      <path
         sodipodi:nodetypes="cccccccccccccccccccccccccccccccccc"
         id="path2340"
         d="M -286.51202,439.14229 C -298.53508,424.07515 -318.67306,390.58758 -330.56905,380.33964 C -349.95014,360.64692 -395.23236,337.00567 -393.64932,252.76876 C -388.86409,216.47229 -473.09174,229.72281 -509.43538,267.48687 C -564.31811,311.32278 -516.79512,376.53017 -516.83503,376.44179 C -501.29995,417.34498 -461.05752,434.30684 -424.18268,456.02476 C -377.47661,480.15618 -338.94385,452.74233 -356.64299,531.55304 C -352.40857,565.81066 -326.58848,578.4826 -308.06091,598.44707 C -306.85286,613.93799 -308.83736,609.82244 -308.52454,620.98795 C -293.94783,620.54956 -291.65773,611.05814 -288.49418,598.29271 C -287.94418,604.62128 -286.85534,613.39466 -288.24583,621.97475 C -278.40574,624.81187 -266.68008,609.23654 -264.3955,596.75741 C -256.54286,592.50893 -234.51522,594.33328 -222.07148,596.0551 C -201.67127,620.84153 -202.0589,636.01236 -215.76445,644.24783 C -233.77533,660.88848 -252.41917,632.4752 -269.50283,649.85931 C -272.62156,656.44575 -272.41012,662.91414 -267.02789,669.19923 C -258.8719,674.67303 -249.28577,659.93095 -239.18284,664.35206 C -250.29939,669.57622 -265.22094,674.713 -262.97478,682.55928 C -262.77577,688.59566 -257.7205,697.29777 -250.66341,699.7369 C -231.20394,701.47014 -242.72404,685.42915 -226.70728,676.14632 C -220.12348,679.04363 -243.68052,693.78098 -232.51184,706.39244 C -227.9962,708.83549 -223.49573,711.31175 -217.52467,710.5663 C -199.23783,706.81673 -196.23675,677.53499 -180.98706,667.52829 C -171.40928,657.50645 -161.22778,666.21794 -151.50941,658.46054 C -148.83183,653.65743 -145.33565,649.41484 -149.32704,640.04529 C -165.53404,627.34263 -174.37908,613.61365 -176.66123,598.96976 C -164.0301,593.05273 -164.06234,583.47456 -166.93626,575.95613 C -176.03477,580.57408 -180.33862,584.33778 -185.81839,582.5119 C -176.15206,576.43312 -176.99445,561.50777 -180.23145,556.81423 C -186.54168,564.62244 -196.74734,573.34225 -201.52399,567.39922 C -194.83889,559.64248 -194.5052,550.74231 -201.01421,539.64077 C -210.43016,562.1017 -260.33219,556.091 -270.80669,546.80883 C -279.10832,541.5367 -258.26849,520.33744 -262.32994,468.6796 C -265.85195,454.29515 -273.85628,444.39301 -286.51202,439.14229 z "
         style="fill:#ffffff;fill-opacity:1;fill-rule:evenodd;stroke:#000000;stroke-width:4.25196838;stroke-linecap:butt;stroke-linejoin:miter;stroke-miterlimit:4;stroke-dasharray:none;stroke-opacity:1" />
      <path
         style="fill:#ffffff;fill-opacity:1;fill-rule:evenodd;stroke:#000000;stroke-width:4.25196838;stroke-linecap:butt;stroke-linejoin:miter;stroke-miterlimit:4;stroke-dasharray:none;stroke-opacity:1"
         d="M -489.56772,293.61093 C -508.97052,320.55185 -547.58557,332.42801 -583.231,329.02981 C -571.75876,342.01102 -561.79579,357.63346 -542.3025,356.57784 C -553.21552,385.31087 -542.27019,398.74305 -532.85747,413.24806 C -513.64059,331.01578 -436.19829,376.5621 -432.11041,340.83611"
         id="path2348"
         sodipodi:nodetypes="ccccc" />
      <path
         style="fill:#ffffff;fill-opacity:1;fill-rule:evenodd;stroke:#000000;stroke-width:4.25196838;stroke-linecap:butt;stroke-linejoin:round;stroke-miterlimit:4;stroke-dasharray:none;stroke-opacity:1"
         d="M -388.82066,299.90762 C -384.62287,284.16589 -373.07893,281.01755 -354.18886,290.46258 C -337.78417,304.47924 -325.57922,291.1976 -313.26037,278.65629 C -295.26888,243.79089 -312.13253,211.60665 -319.55706,178.69632 C -338.88046,130.12527 -308.72941,116.48643 -287.28652,108.64563 C -207.7908,91.884526 -135.37885,80.251731 -48.799355,40.956205 C -37.202801,137.66926 -159.43194,148.69231 -222.87637,162.95459 C -177.53197,170.55562 -119.04874,159.31905 -51.160614,146.42578 C -56.191803,230.77024 -125.75484,226.49637 -210.19012,227.36474 C -161.82538,241.63576 -112.37622,249.17983 -47.225182,247.17283 C -86.440457,338.43048 -177.19297,297.69902 -252.46747,281.31746 C -212.59004,305.43195 -168.28192,326.59405 -105.46957,336.11359 C -153.17004,409.73462 -251.08524,350.95743 -261.48166,357.79577 C -251.60463,362.95218 -233.38246,383.33877 -169.22357,407.73845 C -219.95609,455.04589 -270.79784,421.81076 -311.25536,386.07455 C -308.48756,408.30324 -297.39318,423.81098 -277.84149,437.64773 C -314.72021,455.37858 -346.42319,446.36816 -370.71768,399.0805"
         id="path2352"
         sodipodi:nodetypes="ccccccccccccccccc" />
      <path
         style="fill:none;fill-opacity:1;fill-rule:evenodd;stroke:#000000;stroke-width:3.54330707;stroke-linecap:round;stroke-linejoin:round;stroke-miterlimit:4;stroke-dasharray:none;stroke-opacity:1"
         d="M -398.2657,355.79075 C -387.86093,404.6011 -350.81119,425.36236 -350.25343,352.64241 C -344.41682,369.95915 -337.62313,386.42515 -313.26037,387.27421 C -303.15912,372.51643 -297.79808,356.33659 -308.53785,335.32651 C -301.38032,352.59223 -285.25962,359.77438 -261.31267,358.15201 C -258.43813,337.82467 -263.1414,321.28623 -277.0544,309.35266 C -265.32499,327.16158 -244.95195,319.0396 -227.46796,319.58478 C -235.00423,306.75311 -232.79957,291.92118 -255.01598,279.44337 C -239.14091,288.11431 -224.9809,286.49484 -213.3004,269.99834 C -218.77045,253.85405 -229.09685,244.1849 -247.14512,244.81157 C -232.02644,252.71557 -221.19522,239.18221 -210.15206,226.70859 C -220.43707,213.36408 -234.50483,208.84597 -251.08055,210.17977 C -235.04633,213.38837 -223.30038,208.02044 -215.66166,194.43805 C -221.43363,179.74577 -233.50229,173.44908 -251.86764,175.54797 C -236.24785,175.97884 -226.29814,169.60562 -221.17127,157.44499 C -230.78612,143.37784 -244.87726,137.14419 -262.88685,137.76783"
         id="path2350"
         sodipodi:nodetypes="cccccccccccccccc" />
      <path
         style="fill:none;fill-opacity:0.75;fill-rule:evenodd;stroke:#000000;stroke-width:3.54330707;stroke-linecap:round;stroke-linejoin:miter;stroke-miterlimit:4;stroke-dasharray:none;stroke-opacity:1"
         d="M -259.7385,137.76783 C -199.26329,132.52353 -139.06905,116.41196 -86.5795,88.968474"
         id="path2354"
         sodipodi:nodetypes="cc" />
      <path
         style="fill:none;fill-opacity:0.75;fill-rule:evenodd;stroke:#000000;stroke-width:3.54330707;stroke-linecap:round;stroke-linejoin:miter;stroke-miterlimit:4;stroke-dasharray:none;stroke-opacity:1"
         d="M -217.23584,192.86387 C -173.159,199.95805 -125.18479,189.60021 -85.005327,175.54797"
         id="path2356"
         sodipodi:nodetypes="cc" />
      <path
         style="fill:none;fill-opacity:0.75;fill-rule:evenodd;stroke:#000000;stroke-width:3.54330707;stroke-linecap:round;stroke-linejoin:miter;stroke-miterlimit:4;stroke-dasharray:none;stroke-opacity:1"
         d="M -225.21936,251.46451 C -182.32601,263.01988 -139.93815,271.96909 -92.876191,266.84999"
         id="path2358"
         sodipodi:nodetypes="cc" />
      <path
         style="fill:none;fill-opacity:0.75;fill-rule:evenodd;stroke:#000000;stroke-width:3.54330707;stroke-linecap:round;stroke-linejoin:miter;stroke-miterlimit:4;stroke-dasharray:none;stroke-opacity:1"
         d="M -228.12412,320.61545 C -200.83846,338.1925 -175.2579,341.64884 -147.97224,347.1328"
         id="path2360"
         sodipodi:nodetypes="cc" />
      <path
         style="fill:none;fill-opacity:0.75;fill-rule:evenodd;stroke:#000000;stroke-width:3.54330707;stroke-linecap:round;stroke-linejoin:miter;stroke-miterlimit:4;stroke-dasharray:none;stroke-opacity:1"
         d="M -303.44082,346.28939 C -281.55358,371.55174 -255.87538,393.21351 -217.23584,410.09971"
         id="path2362"
         sodipodi:nodetypes="cc" />
      <path
         style="fill:none;fill-opacity:0.75;fill-rule:evenodd;stroke:#000000;stroke-width:3.54330707;stroke-linecap:round;stroke-linejoin:miter;stroke-miterlimit:4;stroke-dasharray:none;stroke-opacity:1"
         d="M -352.61469,372.31956 C -341.63899,393.87677 -328.43349,413.20417 -313.26037,430.56396"
         id="path2364"
         sodipodi:nodetypes="cc" />
      <g
         id="g2291">
        <path
           sodipodi:nodetypes="ccccccccccccccccccc"
           id="path2282"
           d="M -345.71274,60.166629 C -360.82772,76.842554 -404.1961,56.99576 -402.40963,85.057946 C -427.26575,85.685331 -458.47506,75.848628 -472.2436,94.737903 C -468.09441,105.33939 -464.02384,115.98581 -454.95796,123.77777 C -434.92922,135.5395 -406.24736,186.28673 -453.57511,188.08034 C -455.01332,212.18163 -468.41581,216.7856 -489.29038,209.21282 C -492.29482,221.27172 -484.9788,227.58019 -476.39215,228.87444 C -489.18503,242.87054 -503.46693,251.65503 -523.40908,240.62868 C -522.54974,279.08773 -483.42569,278.61235 -459.79794,246.85151 C -458.36991,262.51217 -456.00856,277.68161 -441.12945,286.26276 C -425.40807,273.38886 -417.75538,255.13584 -412.78101,235.09727 C -399.24592,255.73551 -377.5983,254.19951 -353.31842,245.46866 C -372.71482,229.4221 -385.29828,209.48243 -379.59258,179.09181 C -370.76685,187.26633 -364.19958,184.14856 -357.46697,181.85751 C -370.49541,176.36773 -369.9615,149.94252 -367.83835,121.01207 C -356.06183,114.6182 -343.64649,110.87084 -336.72421,84.366521 C -354.81352,94.103661 -383.21976,79.699676 -403.79248,102.34358 C -394.67693,90.903031 -375.89362,88.08509 -361.8658,87.771977 C -352.32678,80.005446 -348.63871,70.217672 -345.71274,60.166629 z "
           style="fill:#ffffff;fill-opacity:1;fill-rule:evenodd;stroke:#000000;stroke-width:4.25196838;stroke-linecap:butt;stroke-linejoin:miter;stroke-miterlimit:4;stroke-dasharray:none;stroke-opacity:1" />
        <g
           id="g2284">
          <path
             sodipodi:type="arc"
             style="opacity:1;fill:#ffffff;fill-opacity:1;fill-rule:nonzero;stroke:#000000;stroke-width:2.48031497;stroke-linecap:round;stroke-linejoin:round;stroke-miterlimit:4;stroke-dasharray:none;stroke-dashoffset:0;stroke-opacity:1"
             id="path2243"
             sodipodi:cx="-442.60562"
             sodipodi:cy="115.07141"
             sodipodi:rx="5.6454797"
             sodipodi:ry="5.5043426"
             d="M -436.96014 115.07141 A 5.6454797 5.5043426 0 1 1  -448.2511,115.07141 A 5.6454797 5.5043426 0 1 1  -436.96014 115.07141 z" />
          <path
             style="fill:none;fill-opacity:0.75;fill-rule:evenodd;stroke:#000000;stroke-width:3.54330707;stroke-linecap:round;stroke-linejoin:miter;stroke-miterlimit:4;stroke-dasharray:none;stroke-opacity:1"
             d="M -458.41295,110.13162 C -460.55221,131.79218 -423.4557,133.41225 -425.3869,110.13162"
             id="path2245"
             sodipodi:nodetypes="cc" />
          <path
             style="fill:none;fill-opacity:0.75;fill-rule:evenodd;stroke:#5f5f5f;stroke-width:4.25196838;stroke-linecap:butt;stroke-linejoin:miter;stroke-miterlimit:4;stroke-dasharray:none;stroke-opacity:1"
             d="M -462.36479,109.84935 C -443.59284,102.3937 -426.95249,110.08847 -407.60363,109.2848"
             id="path2247"
             sodipodi:nodetypes="cc" />
          <path
             style="fill:none;fill-opacity:0.75;fill-rule:evenodd;stroke:#000000;stroke-width:1px;stroke-linecap:butt;stroke-linejoin:miter;stroke-opacity:1"
             d="M -389.5381,112.10754 C -389.5381,112.01345 -389.5381,111.91936 -389.5381,112.10754 z "
             id="path2249" />
          <path
             style="fill:#000000;fill-opacity:1;fill-rule:evenodd;stroke:#000000;stroke-width:1px;stroke-linecap:butt;stroke-linejoin:miter;stroke-opacity:1"
             d="M -390.10265,112.67209 C -391.33748,103.62483 -367.44914,101.00332 -363.00434,99.122935 C -360.20068,100.5227 -389.6611,116.59355 -390.10265,112.67209 z "
             id="path2251"
             sodipodi:nodetypes="ccc" />
        </g>
        <g
           id="g2239">
          <path
             style="fill:#ffff33;fill-opacity:1;fill-rule:evenodd;stroke:#000000;stroke-width:3.54330707;stroke-linecap:butt;stroke-linejoin:miter;stroke-miterlimit:4;stroke-dasharray:none;stroke-opacity:1"
             d="M -554.66838,136.3831 C -546.86002,143.67104 -534.78396,146.94592 -520.7955,148.52088 L -532.65101,155.57773 C -510.77754,165.36314 -474.61506,127.00445 -437.80695,164.89277 L -437.2424,174.77236 L -455.59021,173.07872 C -461.1179,157.31189 -480.27965,157.61639 -498.23474,164.20139 C -520.04002,172.19844 -561.56618,172.84955 -554.66838,136.3831 z "
             id="path2237"
             sodipodi:nodetypes="ccccccsc" />
          <path
             style="fill:#ffff33;fill-opacity:1;fill-rule:evenodd;stroke:#000000;stroke-width:3.54330707;stroke-linecap:butt;stroke-linejoin:miter;stroke-miterlimit:4;stroke-dasharray:none;stroke-opacity:1"
             d="M -490.83103,181.04753 C -478.88867,177.70941 -479.64864,179.19256 -452.18121,188.36494 C -415.84389,196.24796 -419.0721,150.20101 -441.23767,132.01871 C -466.2735,117.89269 -463.27629,103.4996 -472.20095,95.779074 C -502.82999,94.919034 -531.4391,92.217736 -523.79195,138.05503 C -507.19074,127.0629 -490.49172,126.58216 -475.06712,139.48811 C -446.0449,129.99265 -436.14036,156.84343 -438.52349,173.16557 C -456.77943,176.37689 -489.40468,159.29009 -490.83103,181.04753 z "
             id="path2235"
             sodipodi:nodetypes="cccccccc" />
        </g>
      </g>
    </g>
  </g>
</svg>
